{
    "CACHE_L_CB": 0,
    "CACHE_P_CB": 0,
    "G_CB_RES_DEST_LEVEL": 2,
    "G_CB_SIZE_L_1": 20,
    "G_CB_SIZE_L_2": 576,
    "G_CB_SIZE_R_1": 1,
    "L_CB_RES_DEST_LEVEL": 1,
    "L_CB_SIZE_L_1": 20,
    "L_CB_SIZE_L_2": 16,
    "L_CB_SIZE_R_1": 1,
    "NUM_WG_L_1": 1,
    "NUM_WG_L_2": 37,
    "NUM_WG_R_1": 1,
    "NUM_WI_L_1": 11,
    "NUM_WI_L_2": 16,
    "NUM_WI_R_1": 1,
    "OCL_DIM_L_1": 2,
    "OCL_DIM_L_2": 1,
    "OCL_DIM_R_1": 0,
    "P_CB_RES_DEST_LEVEL": 0,
    "P_CB_SIZE_L_1": 1,
    "P_CB_SIZE_L_2": 1,
    "P_CB_SIZE_R_1": 1
}